<svg xmlns="http://www.w3.org/2000/svg" width="333" height="122" viewBox="0 0 333 122">
  <g id="Logo3" transform="translate(-1402 -604)">
    <text id="Beitify" transform="translate(1402 701)" fill="#fff" font-size="100" font-family="Montserrat-Bold, Montserrat" font-weight="700"><tspan x="0" y="0">B</tspan><tspan y="0" font-size="90">eitify</tspan></text>
    <rect id="Rectangle_2" data-name="Rectangle 2" width="12" height="34" transform="translate(1426.603 672.198) rotate(37)" fill="#2cb474"/>
    <rect id="Rectangle_3" data-name="Rectangle 3" width="12" height="39" transform="translate(1465.798 618.594) rotate(37)" fill="#2cb474"/>
  </g>
</svg>
